{
  name: "jumpToDashboard",
  source: [
    "js/config.js",

    "js/drilledDashboardDisplay/DrilledDashboardDisplay.js",
    "js/drilledDashboardDisplay/DrilledDashboardDisplayTab.js",
    "js/drilledDashboardDisplay/DrilledDashboardDisplayNewTab.js",
    "js/drilledDashboardDisplay/DrilledDashboardDisplayCurrentTab.js",
    "js/drilledDashboardDisplay/DrilledDashboardDisplayModal.js",

    "js/drillToDashboardNavigateType/DrillToDashboardNavigateType.js",
    "js/drillToDashboardNavigateType/DrillToDashboardNavigateTypeClick.js",
    "js/drillToDashboardNavigateType/DrillToDashboardNavigateTypeLink.js",
    "js/drillToDashboardNavigateType/DrillToDashboardNavigateTypeRightClick.js",
    "js/drillToDashboardNavigateType/RightClickMenuFactory.js",

    "js/drilledDashboardSelection/drilledDashboardSelection.js",
    "js/drilledDashboardSelection/DrilledDashboardSelectionId.js",
    "js/drilledDashboardSelection/DrilledDashboardSelectionMenu.js",

    "js/jumpToDashboard.js"
  ],

  style: [
      "styles/style.css"
  ]
}